<?xml version="1.0" encoding="UTF-8" standalone="no"?>
<svg
   xmlns:dc="http://purl.org/dc/elements/1.1/"
   xmlns:cc="http://creativecommons.org/ns#"
   xmlns:rdf="http://www.w3.org/1999/02/22-rdf-syntax-ns#"
   xmlns:svg="http://www.w3.org/2000/svg"
   xmlns="http://www.w3.org/2000/svg"
   xmlns:sodipodi="http://sodipodi.sourceforge.net/DTD/sodipodi-0.dtd"
   xmlns:inkscape="http://www.inkscape.org/namespaces/inkscape"
   version="1.2"
   id="Layer_1"
   x="0px"
   y="0px"
   viewBox="0 0 319.99999 320"
   xml:space="preserve"
   inkscape:version="0.91 r13725"
   sodipodi:docname="LogoSquare.svg"
   width="320"
   height="320"
   inkscape:export-filename="/home/js3214/Dropbox/Bath/OpenLab/Designs/OpenOpticsHardware/logo.png"
   inkscape:export-xdpi="138.98"
   inkscape:export-ydpi="138.98"><metadata
     id="metadata43"><rdf:RDF><cc:Work
         rdf:about=""><dc:format>image/svg+xml</dc:format><dc:type
           rdf:resource="http://purl.org/dc/dcmitype/StillImage" /><dc:title></dc:title></cc:Work></rdf:RDF></metadata><defs
     id="defs41" /><sodipodi:namedview
     pagecolor="#ffffff"
     bordercolor="#666666"
     borderopacity="1"
     objecttolerance="10"
     gridtolerance="10"
     guidetolerance="10"
     inkscape:pageopacity="0"
     inkscape:pageshadow="2"
     inkscape:window-width="1920"
     inkscape:window-height="1015"
     id="namedview39"
     showgrid="false"
     fit-margin-top="0"
     fit-margin-left="0"
     fit-margin-right="0"
     fit-margin-bottom="0"
     inkscape:zoom="0.92200405"
     inkscape:cx="-88.903674"
     inkscape:cy="171.93992"
     inkscape:window-x="1080"
     inkscape:window-y="420"
     inkscape:window-maximized="1"
     inkscape:current-layer="Layer_1" /><circle
     style="fill:#0086a4;fill-opacity:1;stroke:#000000;stroke-width:6.5760231;stroke-miterlimit:4;stroke-dasharray:none;stroke-dashoffset:0;stroke-opacity:1"
     id="path4158"
     cx="160"
     cy="160"
     r="156.71199" /><g
     id="g4176"><path
       style="fill:#ffffff;fill-opacity:1;stroke:none;stroke-width:0.79807937;stroke-opacity:1"
       inkscape:connector-curvature="0"
       id="path3"
       d="m 151.6615,108.84704 -13.11963,-2.43973 c -0.31923,-0.0598 -0.66879,-0.35993 -0.77653,-0.66799 l -4.02152,-9.382222 c -0.15004,-0.289703 -0.12131,-0.744608 0.0638,-1.014359 l 7.64401,-11.141188 c 0.18276,-0.268155 0.14684,-0.675974 -0.0838,-0.906619 l -9.54742,-9.547423 c -0.23065,-0.230645 -0.63767,-0.268155 -0.90582,-0.0838 l -11.33672,7.779678 c -0.26816,0.184357 -0.72785,0.217078 -1.01915,0.07342 l -9.09491,-3.723041 c -0.30886,-0.102154 -0.60973,-0.447722 -0.67039,-0.767752 L 106.2675,63.45627 c -0.059,-0.32003 -0.3743,-0.5818 -0.69991,-0.5818 l -13.503507,0 c -0.324818,0 -0.640059,0.26177 -0.699117,0.5818 l -2.525123,13.569744 c -0.06065,0.32003 -0.360732,0.665598 -0.670387,0.767752 l -9.095711,3.723041 c -0.292097,0.143654 -0.751791,0.110933 -1.019147,-0.07342 L 66.718718,73.66371 c -0.268953,-0.184356 -0.676771,-0.146846 -0.906618,0.0838 l -9.548222,9.547423 c -0.229847,0.230645 -0.268155,0.638464 -0.0838,0.906619 L 63.82488,95.34274 c 0.183558,0.269751 0.212289,0.724656 0.06305,1.014359 l -4.02232,9.382221 c -0.106942,0.30806 -0.455703,0.60814 -0.776531,0.66799 l -13.118829,2.43973 c -0.320828,0.0606 -0.5818,0.3751 -0.5818,0.70071 l 7.98e-4,13.50271 c 0,0.32562 0.26177,0.64245 0.5818,0.70071 l 12.797203,2.38147 c 0.32003,0.0583 0.662406,0.36233 0.759772,0.67278 l 3.995185,9.97999 c 0.142856,0.29289 0.109337,0.75099 -0.07582,1.01914 l -7.268907,10.59291 c -0.183559,0.26816 -0.146049,0.67677 0.0838,0.90742 l 9.54902,9.54742 c 0.229847,0.22905 0.637665,0.26656 0.906618,0.0838 l 10.405359,-7.14201 c 0.268155,-0.18356 0.717473,-0.19793 0.997599,-0.0343 l 4.588957,2.4501 c 0.290501,0.14845 0.629684,0.0232 0.754185,-0.27773 l 9.46203,-22.8626 c 0.125299,-0.30087 0,-0.68475 -0.277732,-0.85474 l -1.148436,-0.70311 c -0.212289,-0.12929 -0.500396,-0.35195 -0.726252,-0.55626 -4.14283,-2.65282 -6.891416,-7.29365 -6.891416,-12.57853 0,-8.24735 6.68631,-14.93286 14.932864,-14.93286 8.246553,0 14.932063,6.68551 14.932063,14.93286 0,5.28488 -2.74778,9.92571 -6.89141,12.57853 -0.22426,0.20431 -0.51317,0.42697 -0.72466,0.55626 l -1.14843,0.70311 c -0.27614,0.16999 -0.40224,0.55387 -0.27774,0.85474 l 9.46123,22.86338 c 0.1245,0.30088 0.46289,0.42538 0.75419,0.27773 l 4.58895,-2.4501 c 0.28093,-0.16361 0.72945,-0.15004 0.9976,0.0343 l 10.40616,7.14201 c 0.26815,0.18276 0.67677,0.14525 0.90582,-0.0838 l 9.54902,-9.54742 c 0.23064,-0.23065 0.26815,-0.63927 0.0838,-0.90742 l -7.26971,-10.59291 c -0.18356,-0.26815 -0.21787,-0.72625 -0.075,-1.01915 l 3.99519,-9.97998 c 0.0982,-0.31045 0.43814,-0.61452 0.75897,-0.67278 l 12.7972,-2.38147 c 0.31924,-0.0583 0.5818,-0.3751 0.5818,-0.70071 l 0.002,-13.50271 c 8e-4,-0.32641 -0.26097,-0.64086 -0.5802,-0.70151" /><path
       id="path3-3"
       d="m 274.03084,108.84704 -13.11962,-2.43973 c -0.31924,-0.0598 -0.6688,-0.35993 -0.77654,-0.66799 l -4.02152,-9.382222 c -0.15004,-0.289703 -0.12131,-0.744608 0.0639,-1.014359 l 7.644,-11.141188 c 0.18276,-0.268155 0.14685,-0.675974 -0.0838,-0.906619 l -9.54742,-9.547423 c -0.23064,-0.230645 -0.63766,-0.268155 -0.90582,-0.0838 l -11.33672,7.779678 c -0.26815,0.184357 -0.72785,0.217078 -1.01914,0.07342 l -9.09492,-3.723041 c -0.30885,-0.102154 -0.60973,-0.447722 -0.67038,-0.767752 L 228.63693,63.45627 c -0.0591,-0.32003 -0.37429,-0.5818 -0.69991,-0.5818 l -13.5035,0 c -0.32482,0 -0.64006,0.26177 -0.69912,0.5818 l -2.52513,13.569744 c -0.0607,0.32003 -0.36073,0.665598 -0.67038,0.767752 l -9.09571,3.723041 c -0.2921,0.143654 -0.75179,0.110933 -1.01915,-0.07342 L 189.08806,73.66371 c -0.26895,-0.184356 -0.67677,-0.146846 -0.90662,0.0838 l -9.54822,9.547423 c -0.22985,0.230645 -0.26815,0.638464 -0.0838,0.906619 l 7.6448,11.141188 c 0.18356,0.269751 0.21229,0.724656 0.0631,1.014359 l -4.02232,9.382221 c -0.10694,0.30806 -0.4557,0.60814 -0.77653,0.66799 l -13.11883,2.43973 c -0.32083,0.0606 -0.5818,0.3751 -0.5818,0.70071 l 8e-4,13.50271 c 0,0.32562 0.26177,0.64245 0.5818,0.70071 l 12.7972,2.38147 c 0.32003,0.0583 0.66241,0.36233 0.75978,0.67278 l 3.99518,9.97999 c 0.14286,0.2929 0.10934,0.751 -0.0758,1.01915 l -7.2689,10.5929 c -0.18356,0.26816 -0.14605,0.67677 0.0838,0.90742 l 9.54902,9.54742 c 0.22985,0.22905 0.63767,0.26656 0.90662,0.0838 l 10.40536,-7.14201 c 0.26816,-0.18356 0.71747,-0.19793 0.9976,-0.0343 l 4.58896,2.4501 c 0.2905,0.14845 0.62968,0.0232 0.75418,-0.27773 l 9.46203,-22.86258 c 0.1253,-0.30087 0,-0.68475 -0.27773,-0.85474 l -1.14844,-0.70311 c -0.21229,-0.12929 -0.50039,-0.35195 -0.72625,-0.55626 -4.14283,-2.65282 -6.89141,-7.29365 -6.89141,-12.57853 0,-8.24735 6.6863,-14.93286 14.93286,-14.93286 8.24655,0 14.93206,6.68551 14.93206,14.93286 0,5.28488 -2.74778,9.92571 -6.89141,12.57853 -0.22426,0.20431 -0.51317,0.42697 -0.72466,0.55626 l -1.14843,0.70311 c -0.27614,0.16999 -0.40224,0.55387 -0.27773,0.85474 l 9.46123,22.86338 c 0.1245,0.30088 0.46288,0.42538 0.75418,0.27773 l 4.58896,-2.4501 c 0.28092,-0.16361 0.72944,-0.15004 0.9976,0.0343 l 10.40615,7.14201 c 0.26816,0.18276 0.67678,0.14525 0.90582,-0.0838 l 9.54902,-9.54742 c 0.23065,-0.23065 0.26816,-0.63927 0.0838,-0.90742 l -7.2697,-10.59291 c -0.18356,-0.26814 -0.21788,-0.72624 -0.075,-1.01915 l 3.99518,-9.97998 c 0.0982,-0.31045 0.43815,-0.61452 0.75898,-0.67278 l 12.7972,-2.38147 c 0.31923,-0.0583 0.5818,-0.3751 0.5818,-0.70071 l 0.002,-13.50271 c 7.9e-4,-0.32641 -0.26098,-0.64086 -0.58021,-0.70151"
       style="fill:#ffffff;fill-opacity:1;stroke:none;stroke-width:0.79807937;stroke-opacity:1"
       inkscape:connector-curvature="0" /><text
       sodipodi:linespacing="125%"
       id="text4186"
       y="257.15259"
       x="83.734169"
       style="font-style:normal;font-variant:normal;font-weight:bold;font-stretch:normal;font-size:122.45584106px;line-height:125%;font-family:sans-serif;-inkscape-font-specification:'sans-serif Bold';letter-spacing:0px;word-spacing:0px;fill:#ffffff;fill-opacity:1;stroke:none;stroke-width:0.74392325px;stroke-linecap:butt;stroke-linejoin:miter;stroke-opacity:1"
       xml:space="preserve"><tspan
         style="fill:#ffffff;fill-opacity:1;stroke:none;stroke-width:0.74392325px"
         y="257.15259"
         x="83.734169"
         id="tspan4188"
         sodipodi:role="line">H!</tspan></text>
</g></svg>